EESchema Schematic File Version 4
EELAYER 29 0
EELAYER END
$Descr A4 11693 8268
encoding utf-8
Sheet 1 1
Title ""
Date ""
Rev ""
Comp ""
Comment1 ""
Comment2 ""
Comment3 ""
Comment4 ""
$EndDescr
$Comp
L bdebyl:IN14 V1
U 1 1 5A1617B2
P 1600 2000
F 0 "V1" H 1700 1300 60  0000 C CNN
F 1 "IN14" H 1500 2600 60  0000 C CNN
F 2 "" H 1500 2100 60  0001 C CNN
F 3 "" H 1500 2100 60  0001 C CNN
	1    1600 2000
	1    0    0    -1  
$EndComp
Entry Wire Line
	800  1500 900  1600
Entry Wire Line
	800  1600 900  1700
Entry Wire Line
	800  1700 900  1800
Entry Wire Line
	800  1800 900  1900
Entry Wire Line
	800  1900 900  2000
Entry Wire Line
	800  2000 900  2100
Entry Wire Line
	800  2100 900  2200
Entry Wire Line
	800  2200 900  2300
Entry Wire Line
	800  2300 900  2400
Entry Wire Line
	800  2400 900  2500
Text Label 900  1600 0    60   ~ 0
NAC1
Text Label 900  1700 0    60   ~ 0
NAC2
Text GLabel 1700 1200 1    60   Input ~ 0
VCC_HV
$Comp
L Device:Q_NMOS_DGS Q1
U 1 1 5A161CDF
P 2150 1100
F 0 "Q1" H 2350 1150 50  0000 L CNN
F 1 "NMOS" H 2350 1050 50  0000 L CNN
F 2 "" H 2350 1200 50  0001 C CNN
F 3 "" H 2150 1100 50  0001 C CNN
	1    2150 1100
	1    0    0    -1  
$EndComp
$Comp
L Device:Q_NMOS_DGS Q3
U 1 1 5A16222A
P 3050 1100
F 0 "Q3" H 3250 1150 50  0000 L CNN
F 1 "NMOS" H 3250 1050 50  0000 L CNN
F 2 "" H 3250 1200 50  0001 C CNN
F 3 "" H 3050 1100 50  0001 C CNN
	1    3050 1100
	1    0    0    -1  
$EndComp
Entry Wire Line
	2150 750  2250 850 
Entry Wire Line
	3050 750  3150 850 
Wire Wire Line
	900  1600 1200 1600
Wire Wire Line
	900  1700 1200 1700
Wire Wire Line
	900  1800 1200 1800
Wire Wire Line
	900  1900 1200 1900
Wire Wire Line
	900  2000 1200 2000
Wire Wire Line
	900  2100 1200 2100
Wire Wire Line
	900  2200 1200 2200
Wire Wire Line
	900  2300 1200 2300
Wire Wire Line
	900  2400 1200 2400
Wire Wire Line
	900  2500 1200 2500
Wire Wire Line
	1700 1250 1700 1200
Wire Wire Line
	2850 1100 2800 1100
Wire Wire Line
	1950 1100 1900 1100
Wire Wire Line
	2250 1300 2250 1350
Wire Wire Line
	3150 1300 3150 1350
$Comp
L power:GND #PWR1
U 1 1 5A165392
P 2250 1350
F 0 "#PWR1" H 2250 1100 50  0001 C CNN
F 1 "GND" H 2250 1200 50  0000 C CNN
F 2 "" H 2250 1350 50  0001 C CNN
F 3 "" H 2250 1350 50  0001 C CNN
	1    2250 1350
	1    0    0    -1  
$EndComp
$Comp
L power:GND #PWR3
U 1 1 5A1653B6
P 3150 1350
F 0 "#PWR3" H 3150 1100 50  0001 C CNN
F 1 "GND" H 3150 1200 50  0000 C CNN
F 2 "" H 3150 1350 50  0001 C CNN
F 3 "" H 3150 1350 50  0001 C CNN
	1    3150 1350
	1    0    0    -1  
$EndComp
Text GLabel 2800 1150 3    60   Input ~ 0
GNA3
Text GLabel 1900 1150 3    60   Input ~ 0
GNA1
Entry Wire Line
	2550 750  2650 850 
Wire Wire Line
	2350 1700 2300 1700
Text GLabel 2300 1750 3    60   Input ~ 0
GNA2
Wire Wire Line
	1900 1100 1900 1150
Wire Wire Line
	2300 1700 2300 1750
Wire Wire Line
	2800 1100 2800 1150
Wire Wire Line
	2650 850  2650 1500
Wire Wire Line
	2250 850  2250 900 
Wire Wire Line
	3150 850  3150 900 
Wire Wire Line
	3550 1500 3550 850 
$Comp
L Device:Q_NMOS_DGS Q5
U 1 1 5A168C51
P 3950 1100
F 0 "Q5" H 4150 1150 50  0000 L CNN
F 1 "NMOS" H 4150 1050 50  0000 L CNN
F 2 "" H 4150 1200 50  0001 C CNN
F 3 "" H 3950 1100 50  0001 C CNN
	1    3950 1100
	1    0    0    -1  
$EndComp
Wire Wire Line
	3750 1100 3700 1100
Wire Wire Line
	4050 1300 4050 1350
$Comp
L power:GND #PWR5
U 1 1 5A168C59
P 4050 1350
F 0 "#PWR5" H 4050 1100 50  0001 C CNN
F 1 "GND" H 4050 1200 50  0000 C CNN
F 2 "" H 4050 1350 50  0001 C CNN
F 3 "" H 4050 1350 50  0001 C CNN
	1    4050 1350
	1    0    0    -1  
$EndComp
Text GLabel 3700 1150 3    60   Input ~ 0
GNA5
Wire Wire Line
	3700 1100 3700 1150
Wire Wire Line
	4450 1500 4450 850 
Wire Wire Line
	4050 900  4050 850 
Entry Wire Line
	3450 750  3550 850 
Entry Wire Line
	3950 750  4050 850 
Entry Wire Line
	4350 750  4450 850 
$Comp
L Device:Q_NMOS_DGS Q9
U 1 1 5A16ADBE
P 5750 1100
F 0 "Q9" H 5950 1150 50  0000 L CNN
F 1 "NMOS" H 5950 1050 50  0000 L CNN
F 2 "" H 5950 1200 50  0001 C CNN
F 3 "" H 5750 1100 50  0001 C CNN
	1    5750 1100
	1    0    0    -1  
$EndComp
Entry Wire Line
	4850 750  4950 850 
Entry Wire Line
	5750 750  5850 850 
Wire Wire Line
	5550 1100 5500 1100
Wire Wire Line
	4650 1100 4600 1100
Wire Wire Line
	4950 1300 4950 1350
Wire Wire Line
	5850 1300 5850 1350
$Comp
L power:GND #PWR7
U 1 1 5A16ADCA
P 4950 1350
F 0 "#PWR7" H 4950 1100 50  0001 C CNN
F 1 "GND" H 4950 1200 50  0000 C CNN
F 2 "" H 4950 1350 50  0001 C CNN
F 3 "" H 4950 1350 50  0001 C CNN
	1    4950 1350
	1    0    0    -1  
$EndComp
$Comp
L power:GND #PWR9
U 1 1 5A16ADD0
P 5850 1350
F 0 "#PWR9" H 5850 1100 50  0001 C CNN
F 1 "GND" H 5850 1200 50  0000 C CNN
F 2 "" H 5850 1350 50  0001 C CNN
F 3 "" H 5850 1350 50  0001 C CNN
	1    5850 1350
	1    0    0    -1  
$EndComp
Text GLabel 5500 1150 3    60   Input ~ 0
GNA9
Text GLabel 4600 1150 3    60   Input ~ 0
GNA7
Entry Wire Line
	5250 750  5350 850 
Wire Wire Line
	4600 1100 4600 1150
Wire Wire Line
	5500 1100 5500 1150
Wire Wire Line
	5350 850  5350 1500
Wire Wire Line
	4950 850  4950 900 
Wire Wire Line
	5850 850  5850 900 
Wire Wire Line
	6250 1500 6250 850 
Entry Wire Line
	6150 750  6250 850 
Text Label 900  1800 0    60   ~ 0
NAC3
Text Label 900  1900 0    60   ~ 0
NAC4
Text Label 900  2000 0    60   ~ 0
NAC5
Text Label 900  2100 0    60   ~ 0
NAC6
Text Label 900  2200 0    60   ~ 0
NAC7
Text Label 900  2300 0    60   ~ 0
NAC8
Text Label 900  2400 0    60   ~ 0
NAC9
Text Label 900  2500 0    60   ~ 0
NAC0
Text Label 2250 850  0    60   ~ 0
NAC1
Text Label 2650 850  0    60   ~ 0
NAC2
Text Label 3150 850  0    60   ~ 0
NAC3
Text Label 3550 850  0    60   ~ 0
NAC4
Text Label 4050 850  0    60   ~ 0
NAC5
Text Label 4450 850  0    60   ~ 0
NAC6
Text Label 4950 850  0    60   ~ 0
NAC7
Text Label 5350 850  0    60   ~ 0
NAC8
Text Label 5850 850  0    60   ~ 0
NAC9
Text Label 6250 850  0    60   ~ 0
NAC0
NoConn ~ 1200 1500
NoConn ~ 1200 2600
Wire Wire Line
	5900 1700 5900 1750
Text GLabel 5900 1750 3    60   Input ~ 0
GNA0
$Comp
L power:GND #PWR10
U 1 1 5A16ADF6
P 6250 1950
F 0 "#PWR10" H 6250 1700 50  0001 C CNN
F 1 "GND" H 6250 1800 50  0000 C CNN
F 2 "" H 6250 1950 50  0001 C CNN
F 3 "" H 6250 1950 50  0001 C CNN
	1    6250 1950
	1    0    0    -1  
$EndComp
Wire Wire Line
	6250 1900 6250 1950
Wire Wire Line
	5950 1700 5900 1700
$Comp
L Device:Q_NMOS_DGS Q10
U 1 1 5A16ADEE
P 6150 1700
F 0 "Q10" H 6350 1750 50  0000 L CNN
F 1 "NMOS" H 6350 1650 50  0000 L CNN
F 2 "" H 6350 1800 50  0001 C CNN
F 3 "" H 6150 1700 50  0001 C CNN
	1    6150 1700
	1    0    0    -1  
$EndComp
Wire Wire Line
	5000 1700 5000 1750
Text GLabel 5000 1750 3    60   Input ~ 0
GNA8
$Comp
L power:GND #PWR8
U 1 1 5A16ADE1
P 5350 1950
F 0 "#PWR8" H 5350 1700 50  0001 C CNN
F 1 "GND" H 5350 1800 50  0000 C CNN
F 2 "" H 5350 1950 50  0001 C CNN
F 3 "" H 5350 1950 50  0001 C CNN
	1    5350 1950
	1    0    0    -1  
$EndComp
Wire Wire Line
	5350 1900 5350 1950
Wire Wire Line
	5050 1700 5000 1700
$Comp
L Device:Q_NMOS_DGS Q8
U 1 1 5A16ADD8
P 5250 1700
F 0 "Q8" H 5450 1750 50  0000 L CNN
F 1 "NMOS" H 5450 1650 50  0000 L CNN
F 2 "" H 5450 1800 50  0001 C CNN
F 3 "" H 5250 1700 50  0001 C CNN
	1    5250 1700
	1    0    0    -1  
$EndComp
Wire Wire Line
	4100 1700 4100 1750
Text GLabel 4100 1750 3    60   Input ~ 0
GNA6
$Comp
L power:GND #PWR6
U 1 1 5A169273
P 4450 1950
F 0 "#PWR6" H 4450 1700 50  0001 C CNN
F 1 "GND" H 4450 1800 50  0000 C CNN
F 2 "" H 4450 1950 50  0001 C CNN
F 3 "" H 4450 1950 50  0001 C CNN
	1    4450 1950
	1    0    0    -1  
$EndComp
Wire Wire Line
	4450 1900 4450 1950
Wire Wire Line
	4150 1700 4100 1700
$Comp
L Device:Q_NMOS_DGS Q6
U 1 1 5A16926B
P 4350 1700
F 0 "Q6" H 4550 1750 50  0000 L CNN
F 1 "NMOS" H 4550 1650 50  0000 L CNN
F 2 "" H 4550 1800 50  0001 C CNN
F 3 "" H 4350 1700 50  0001 C CNN
	1    4350 1700
	1    0    0    -1  
$EndComp
Wire Wire Line
	3200 1700 3200 1750
Text GLabel 3200 1750 3    60   Input ~ 0
GNA4
$Comp
L power:GND #PWR4
U 1 1 5A1688E9
P 3550 1950
F 0 "#PWR4" H 3550 1700 50  0001 C CNN
F 1 "GND" H 3550 1800 50  0000 C CNN
F 2 "" H 3550 1950 50  0001 C CNN
F 3 "" H 3550 1950 50  0001 C CNN
	1    3550 1950
	1    0    0    -1  
$EndComp
Wire Wire Line
	3550 1900 3550 1950
Wire Wire Line
	3250 1700 3200 1700
$Comp
L Device:Q_NMOS_DGS Q4
U 1 1 5A1688E1
P 3450 1700
F 0 "Q4" H 3650 1750 50  0000 L CNN
F 1 "NMOS" H 3650 1650 50  0000 L CNN
F 2 "" H 3650 1800 50  0001 C CNN
F 3 "" H 3450 1700 50  0001 C CNN
	1    3450 1700
	1    0    0    -1  
$EndComp
$Comp
L power:GND #PWR2
U 1 1 5A167D59
P 2650 1950
F 0 "#PWR2" H 2650 1700 50  0001 C CNN
F 1 "GND" H 2650 1800 50  0000 C CNN
F 2 "" H 2650 1950 50  0001 C CNN
F 3 "" H 2650 1950 50  0001 C CNN
	1    2650 1950
	1    0    0    -1  
$EndComp
Wire Wire Line
	2650 1900 2650 1950
$Comp
L Device:Q_NMOS_DGS Q2
U 1 1 5A167D4E
P 2550 1700
F 0 "Q2" H 2750 1750 50  0000 L CNN
F 1 "NMOS" H 2750 1650 50  0000 L CNN
F 2 "" H 2750 1800 50  0001 C CNN
F 3 "" H 2550 1700 50  0001 C CNN
	1    2550 1700
	1    0    0    -1  
$EndComp
$Comp
L Device:Q_NMOS_DGS Q7
U 1 1 5A16ADB8
P 4850 1100
F 0 "Q7" H 5050 1150 50  0000 L CNN
F 1 "NMOS" H 5050 1050 50  0000 L CNN
F 2 "" H 5050 1200 50  0001 C CNN
F 3 "" H 4850 1100 50  0001 C CNN
	1    4850 1100
	1    0    0    -1  
$EndComp
Wire Bus Line
	800  750  6150 750 
Wire Bus Line
	800  750  800  2400
$EndSCHEMATC
